{
    "title": "Amazon Seller Central",
    "description": "Amazon Seller Central",
    "credentials": {
        "fields": {
            "accessKeyId": {
                "viewClass": "TextFieldWithNoteView",
                "label": "Your AccessKeyId",
                "required": true,
                "placeholder": "Paste your AccessID here"                
            },
            "merchantId": {
                "viewClass": "TextFieldWithNoteView",
                "label": "Your MerchantId",
                "required": true,
                "placeholder": "Paste your MerchantId here"
            },
            "marketPlaceId": {
                "viewClass": "TextFieldWithNoteView",
                "label": "Your MarketPlaceId",
                "required": true,
                "placeholder": "Paste your MarketPlaceId here",
                "note": "Get all the details by following the link <a href='https://sellercentral.amazon.in/gp/mws/registration/register.html?%2AVersion%2A=1&%2Aentries%2A=0&signInPageDisplayed=1' target='_blank'>here</a></br>Please collect developer details from aplynk developers."
            }
        }
    },
    "triggers": {
        "getOrderList": {
            "main": "./lib/triggers/getOrderList.js",
            "type": "polling",
            "title": "GET-OrderList",
            "metadata": {
                "out": "./lib/schemas/getOrderList.out.json"
            }
        }
    },
    "actions": {
        "update": {
            "main": "./lib/actions/updateHello.js",
            "title": "Update",
            "metadata": {
                "in": "./lib/schemas/updateHello.in.json",
                "out": "./lib/schemas/updateHello.out.json"
            }
        }
    }
}
